…
4. My date coloumn is not represented at a date rather a string.
================================================================

I should consider splitting this coloumn out to day, month, year.

``` r
mat_tidy4 <- mat_tidy3 %>%
  separate(Sampling_date, c("Day", "Month", "Year"), sep = '/')
mat_tidy4
```

    ## # A tibble: 450 x 20
    ##    ID    sampling_event Day   Month Year    GFV Sample POINT_X POINT_Y
    ##    <chr>          <int> <chr> <chr> <chr> <int>  <int>   <dbl>   <dbl>
    ##  1 2015~              1 14    01    2015   2414      1 286332.  6.24e6
    ##  2 2015~              1 14    01    2015   2414      2 286382.  6.24e6
    ##  3 2015~              1 14    01    2015   2414      3 286426.  6.24e6
    ##  4 2015~              1 14    01    2015   2414      4 286473.  6.24e6
    ##  5 2015~              1 14    01    2015   2414      5 286583.  6.24e6
    ##  6 2015~              1 14    01    2015   2414      6 286631.  6.24e6
    ##  7 2015~              1 14    01    2015   2414      7 286667.  6.24e6
    ##  8 2015~              1 14    01    2015   2414      8 286729.  6.24e6
    ##  9 2015~              1 14    01    2015   2414      9 286759.  6.24e6
    ## 10 2015~              1 14    01    2015   2414     10 286779.  6.24e6
    ## # ... with 440 more rows, and 11 more variables: pH <dbl>, TA <dbl>,
    ## #   brix <dbl>, bunch_wt <dbl>, Mean_berry_wt <dbl>, berries_bunch <int>,
    ## #   Colour_per_berry_Wt <dbl>, Phenolic_per_berry_Wt <dbl>,
    ## #   Colour_per_berry <dbl>, Phenolic_per_berry <dbl>, Year_a <fct>
…
